<svg xmlns="http://www.w3.org/2000/svg" xmlns:xlink="http://www.w3.org/1999/xlink" width="16" height="16" viewBox="0 0 16 16">
    <defs>
        <path id="a" d="M15.14 8.282a.978.978 0 1 1 1.375 1.391c-2.788 2.755-4.714 4.687-5.774 5.792-1.157 1.206-1.003 3.516.258 4.72 1.396 1.334 3.503 1.37 5.22-.252a96.037 96.037 0 0 0 2.205-2.154c1.283-1.287 1.133-1.167 3.076-3.2.792-.828.68-2.101-.12-2.946-.664-.7-2.067-.73-2.927.051-1.021.929-2.705 2.636-4.898 4.9-.573.592-.532 1.042-.216 1.291.272.214.819.163 1.269-.333.613-.675 2.254-2.316 4.946-4.948a.978.978 0 0 1 1.367 1.399c-2.66 2.6-4.29 4.23-4.865 4.864-1.135 1.25-2.84 1.409-3.926.555-1.21-.952-1.375-2.748.02-4.188 2.228-2.301 3.922-4.018 4.988-4.987 1.637-1.489 4.256-1.432 5.661.051 1.47 1.551 1.686 3.999.115 5.642-1.953 2.044-1.81 1.93-3.106 3.23a97.956 97.956 0 0 1-2.246 2.195c-2.482 2.346-5.774 2.289-7.914.244-2.016-1.926-2.253-5.471-.318-7.488 1.075-1.12 3.01-3.062 5.81-5.829z"/>
    </defs>
    <g fill="none" fill-rule="evenodd" transform="translate(-8 -8)">
        <mask id="b" fill="#fff">
            <use xlink:href="#a"/>
        </mask>
        <use fill="#333" fill-rule="nonzero" xlink:href="#a"/>
        <g fill="#0A0606" mask="url(#b)">
            <path d="M0 0h32v32H0z"/>
        </g>
    </g>
</svg>
