<svg xmlns="http://www.w3.org/2000/svg" xmlns:xlink="http://www.w3.org/1999/xlink" width="16" height="16" viewBox="0 0 16 16">
    <defs>
        <path id="a" d="M7 5.589L12.293.298a1 1 0 0 1 1.414 1.414l-5.292 5.29 5.292 5.29a1 1 0 0 1-1.414 1.415L7 8.417l-5.293 5.29a1 1 0 0 1-1.414-1.414l5.292-5.29-5.292-5.29A1 1 0 1 1 1.707.297L7 5.588z"/>
    </defs>
    <g fill="none" fill-rule="evenodd" transform="translate(1 1)">
        <mask id="b" fill="#fff">
            <use xlink:href="#a"/>
        </mask>
        <use fill="#0A0606" fill-rule="nonzero" xlink:href="#a"/>
        <g fill="#0A0606" mask="url(#b)">
            <path d="M-9-9h32v32H-9z"/>
        </g>
    </g>
</svg>
