<svg xmlns="http://www.w3.org/2000/svg" xmlns:xlink="http://www.w3.org/1999/xlink" width="16" height="16" viewBox="0 0 16 16">
    <defs>
        <path id="a" d="M5 5V3c0-1.645 1.32-3 2.999-3h5a2.995 2.995 0 0 1 2.997 3c0 .221 0 .77.004 2.475L16.004 8c0 1.7-1.396 3-3.005 3H11v2a3 3 0 0 1-3 3H3a3 3 0 0 1-3-3V8a3 3 0 0 1 3-3h2zm0 2H3a1 1 0 0 0-1 1v5a1 1 0 0 0 1 1h5a1 1 0 0 0 1-1v-2h-.014l.01-2.01.003-.99c0-.542-.447-1-1-1H5zm2-4v2h.999c1.709 0 3 1.405 3 3l-.003 1h2.003c.5 0 1.005-.406 1.005-1l-.008-5c0-.538-.427-1-.997-1h-5A.993.993 0 0 0 7 3z"/>
    </defs>
    <g fill="none" fill-rule="evenodd">
        <mask id="b" fill="#fff">
            <use xlink:href="#a"/>
        </mask>
        <use fill="#333" xlink:href="#a"/>
        <g fill="#0A0606" mask="url(#b)">
            <path d="M-8-8h32v32H-8z"/>
        </g>
    </g>
</svg>
