<svg xmlns="http://www.w3.org/2000/svg" xmlns:xlink="http://www.w3.org/1999/xlink" width="32" height="32" viewBox="0 0 32 32">
    <defs>
        <path id="a" d="M6 12h2v17a1 1 0 0 0 1 1h20a1 1 0 0 0 1-1V3a1 1 0 0 0-1-1H9a1 1 0 0 0-1 1v5H6V3a3 3 0 0 1 3-3h20a3 3 0 0 1 3 3v26a3 3 0 0 1-3 3H9a3 3 0 0 1-3-3V12zm15-4a1 1 0 0 1 0-2h5a1 1 0 0 1 0 2h-5zm0 10a1 1 0 0 1 0-2h5a1 1 0 0 1 0 2h-5zm0 5a1 1 0 0 1 0-2h5a1 1 0 0 1 0 2h-5zm0-10a1 1 0 0 1 0-2h5a1 1 0 0 1 0 2h-5zM3 6h10a3 3 0 0 1 3 3v2a3 3 0 0 1-3 3H3a3 3 0 0 1-3-3V9a3 3 0 0 1 3-3zm0 2a1 1 0 0 0-1 1v2a1 1 0 0 0 1 1h10a1 1 0 0 0 1-1V9a1 1 0 0 0-1-1H3z"/>
    </defs>
    <g fill="none" fill-rule="evenodd">
        <mask id="b" fill="#fff">
            <use xlink:href="#a"/>
        </mask>
        <use fill="#0A0606" fill-rule="nonzero" xlink:href="#a"/>
        <g fill="#0A0606" mask="url(#b)">
            <path d="M0 0h32v32H0z"/>
        </g>
    </g>
</svg>
