<svg xmlns="http://www.w3.org/2000/svg" width="16" height="16" viewBox="0 0 16 16">
    <path fill="#0A0606" fill-rule="nonzero" d="M7 12.586V1a1 1 0 0 1 2 0v11.586l3.293-3.293a1 1 0 0 1 1.414 1.414l-5 5a.997.997 0 0 1-1.414 0l-5-5a1 1 0 0 1 1.414-1.414L7 12.586z"/>
</svg>
