<svg xmlns="http://www.w3.org/2000/svg" xmlns:xlink="http://www.w3.org/1999/xlink" width="16" height="16" viewBox="0 0 16 16">
    <defs>
        <path id="a" d="M15.586 17H9a1 1 0 0 1 0-2h6.586l-2.293-2.293a1 1 0 0 1 1.414-1.414l4 4a.997.997 0 0 1 0 1.414l-4 4a1 1 0 0 1-1.414-1.414L15.586 17zM17 10a1 1 0 0 1 0-2h4.004a3 3 0 0 1 3 3v10a3 3 0 0 1-3 3H17a1 1 0 0 1 0-2h4.004a1 1 0 0 0 1-1V11a1 1 0 0 0-1-1H17z"/>
    </defs>
    <g fill="none" fill-rule="evenodd" transform="translate(-8 -8)">
        <mask id="b" fill="#fff">
            <use xlink:href="#a"/>
        </mask>
        <use fill="#0A0606" fill-rule="nonzero" xlink:href="#a"/>
        <g fill="#0A0606" mask="url(#b)">
            <path d="M0 0h32v32H0z"/>
        </g>
    </g>
</svg>
