<svg xmlns="http://www.w3.org/2000/svg" xmlns:xlink="http://www.w3.org/1999/xlink" width="16" height="16" viewBox="0 0 16 16">
    <defs>
        <path id="a" d="M15 0a1 1 0 0 1 1 1v5a1 1 0 0 1-2 0V3.414l-3.293 3.293a1 1 0 0 1-1.414-1.414L12.586 2H10a1 1 0 1 1 0-2h5zM6 5a1 1 0 1 1 0 2H3a1 1 0 0 0-1 1v5a1 1 0 0 0 1 1h5.004a1 1 0 0 0 1-1v-3a1 1 0 1 1 2 0v3a3 3 0 0 1-3 3H3a3 3 0 0 1-3-3V8a3 3 0 0 1 3-3h3z"/>
    </defs>
    <g fill="none" fill-rule="evenodd">
        <mask id="b" fill="#fff">
            <use xlink:href="#a"/>
        </mask>
        <use fill="#333" fill-rule="nonzero" xlink:href="#a"/>
        <g fill="#0A0606" mask="url(#b)">
            <path d="M-8-8h32v32H-8z"/>
        </g>
    </g>
</svg>
