<svg xmlns="http://www.w3.org/2000/svg" xmlns:xlink="http://www.w3.org/1999/xlink" width="32" height="32" viewBox="0 0 32 32">
    <defs>
        <path id="a" d="M20 18v11a3 3 0 0 1-3 3h-.5a2.5 2.5 0 0 1-2.5-2.5V29h-1.5a2.5 2.5 0 1 1 0-5H14v-6h2v6a2 2 0 0 1-2 2h-1.5a.5.5 0 1 0 0 1H14a2 2 0 0 1 2 2v.5a.5.5 0 0 0 .5.5h.5a1 1 0 0 0 1-1V18h2zm-4 1.95c-5.053-.501-9-4.765-9-9.95C7 4.477 11.477 0 17 0s10 4.477 10 10c0 5.185-3.947 9.449-9 9.95v-2.012A8.001 8.001 0 0 0 17 2a8 8 0 0 0-1 15.938v2.013zM17 12a4 4 0 1 1 0-8 4 4 0 0 1 0 8zm0-2a2 2 0 1 0 0-4 2 2 0 0 0 0 4z"/>
    </defs>
    <g fill="none" fill-rule="evenodd">
        <mask id="b" fill="#fff">
            <use xlink:href="#a"/>
        </mask>
        <use fill="#0A0606" fill-rule="nonzero" xlink:href="#a"/>
        <g fill="#0A0606" mask="url(#b)">
            <path d="M0 0h32v32H0z"/>
        </g>
    </g>
</svg>
