<svg xmlns="http://www.w3.org/2000/svg" xmlns:xlink="http://www.w3.org/1999/xlink" width="16" height="16" viewBox="0 0 16 16">
    <defs>
        <path id="a" d="M17 11.414V23a1 1 0 0 1-2 0V11.414l-3.293 3.293a1 1 0 0 1-1.414-1.414l5-5a.997.997 0 0 1 1.414 0l5 5a1 1 0 0 1-1.414 1.414L17 11.414z"/>
    </defs>
    <g fill="none" fill-rule="evenodd" transform="translate(-8 -8)">
        <mask id="b" fill="#fff">
            <use xlink:href="#a"/>
        </mask>
        <use fill="#0A0606" fill-rule="nonzero" xlink:href="#a"/>
        <g fill="#0A0606" mask="url(#b)">
            <path d="M0 0h32v32H0z"/>
        </g>
    </g>
</svg>
