<svg xmlns="http://www.w3.org/2000/svg" xmlns:xlink="http://www.w3.org/1999/xlink" width="32" height="32" viewBox="0 0 32 32">
    <defs>
        <path id="a" d="M16 32C7.163 32 0 24.837 0 16S7.163 0 16 0s16 7.163 16 16-7.163 16-16 16zm0-2c7.732 0 14-6.268 14-14S23.732 2 16 2 2 8.268 2 16s6.268 14 14 14zm1-11a1 1 0 0 1-2 0v-2a1 1 0 0 1 1-1c1.68 0 3-1.347 3-3 0-1.628-1.36-3-3-3-1.615 0-3 1.414-3 3a1 1 0 0 1-2 0c0-2.68 2.272-5 5-5 2.75 0 5 2.271 5 5a4.988 4.988 0 0 1-4 4.901V19zm-1 2a1 1 0 0 1 1 1v1a1 1 0 0 1-2 0v-1a1 1 0 0 1 1-1z"/>
    </defs>
    <g fill="none" fill-rule="evenodd">
        <mask id="b" fill="#fff">
            <use xlink:href="#a"/>
        </mask>
        <use fill="#0A0606" fill-rule="nonzero" xlink:href="#a"/>
        <g fill="#0A0606" mask="url(#b)">
            <path d="M0 0h32v32H0z"/>
        </g>
    </g>
</svg>
