<svg xmlns="http://www.w3.org/2000/svg" xmlns:xlink="http://www.w3.org/1999/xlink" width="16" height="16" viewBox="0 0 16 16">
    <defs>
        <path id="a" d="M18.414 17l5.293 5.293a1 1 0 0 1-1.414 1.414L17 18.414l-3.293 3.293c-.63.63-1.707.184-1.707-.707v-3.586l-3.707-3.707a1 1 0 0 1 0-1.414l4-4a1 1 0 0 1 1.414 0L17.414 12H21c.89 0 1.337 1.077.707 1.707L18.414 17zM13 10.414L10.414 13l3.293 3.293A1 1 0 0 1 14 17v1.586L18.586 14H17a1 1 0 0 1-.707-.293L13 10.414z"/>
    </defs>
    <g fill="none" fill-rule="evenodd" transform="translate(-8 -8)">
        <mask id="b" fill="#fff">
            <use xlink:href="#a"/>
        </mask>
        <use fill="#333" fill-rule="nonzero" xlink:href="#a"/>
        <g fill="#0A0606" mask="url(#b)">
            <path d="M0 0h32v32H0z"/>
        </g>
    </g>
</svg>
